info face="Impact" size=-60 bold=0 italic=0 charset="" unicode=1 stretchH=100 smooth=1 aa=2 padding=4,4,4,4 spacing=1,1 outline=0
common lineHeight=73 base=60 scaleW=512 scaleH=256 pages=1 packed=0 alphaChnl=0 redChnl=4 greenChnl=4 blueChnl=4
page id=0 file="ButtonFontMedium@2x_0.png"
chars count=46
char id=32   x=500   y=59    width=10    height=9     xoffset=-4    yoffset=68    xadvance=10    page=0  chnl=15
char id=33   x=0     y=183   width=22    height=56    xoffset=-3    yoffset=8     xadvance=16    page=0  chnl=15
char id=34   x=75    y=183   width=29    height=24    xoffset=-4    yoffset=8     xadvance=22    page=0  chnl=15
char id=36   x=234   y=0     width=38    height=65    xoffset=-3    yoffset=4     xadvance=33    page=0  chnl=15
char id=39   x=105   y=183   width=18    height=24    xoffset=-4    yoffset=8     xadvance=11    page=0  chnl=15
char id=63   x=154   y=66    width=37    height=57    xoffset=-2    yoffset=7     xadvance=31    page=0  chnl=15
char id=65   x=379   y=66    width=40    height=56    xoffset=-4    yoffset=8     xadvance=30    page=0  chnl=15
char id=66   x=156   y=124   width=38    height=56    xoffset=-2    yoffset=8     xadvance=33    page=0  chnl=15
char id=67   x=464   y=0     width=38    height=58    xoffset=-3    yoffset=7     xadvance=33    page=0  chnl=15
char id=68   x=117   y=126   width=38    height=56    xoffset=-2    yoffset=8     xadvance=33    page=0  chnl=15
char id=69   x=378   y=123   width=31    height=56    xoffset=-2    yoffset=8     xadvance=25    page=0  chnl=15
char id=70   x=410   y=123   width=30    height=56    xoffset=-2    yoffset=8     xadvance=24    page=0  chnl=15
char id=71   x=0     y=67    width=38    height=58    xoffset=-3    yoffset=7     xadvance=33    page=0  chnl=15
char id=72   x=78    y=126   width=38    height=56    xoffset=-2    yoffset=8     xadvance=33    page=0  chnl=15
char id=73   x=23    y=183   width=22    height=56    xoffset=-2    yoffset=8     xadvance=17    page=0  chnl=15
char id=74   x=471   y=117   width=26    height=56    xoffset=-4    yoffset=8     xadvance=20    page=0  chnl=15
char id=75   x=460   y=60    width=39    height=56    xoffset=-2    yoffset=8     xadvance=32    page=0  chnl=15
char id=76   x=441   y=121   width=29    height=56    xoffset=-2    yoffset=8     xadvance=23    page=0  chnl=15
char id=77   x=289   y=66    width=47    height=56    xoffset=-2    yoffset=8     xadvance=43    page=0  chnl=15
char id=78   x=195   y=124   width=37    height=56    xoffset=-2    yoffset=8     xadvance=32    page=0  chnl=15
char id=79   x=116   y=67    width=37    height=58    xoffset=-2    yoffset=7     xadvance=33    page=0  chnl=15
char id=80   x=271   y=123   width=36    height=56    xoffset=-2    yoffset=8     xadvance=30    page=0  chnl=15
char id=81   x=388   y=0     width=37    height=63    xoffset=-2    yoffset=7     xadvance=33    page=0  chnl=15
char id=82   x=233   y=123   width=37    height=56    xoffset=-2    yoffset=8     xadvance=32    page=0  chnl=15
char id=83   x=78    y=67    width=37    height=58    xoffset=-3    yoffset=7     xadvance=31    page=0  chnl=15
char id=84   x=308   y=123   width=36    height=56    xoffset=-4    yoffset=8     xadvance=27    page=0  chnl=15
char id=85   x=192   y=66    width=37    height=57    xoffset=-2    yoffset=8     xadvance=33    page=0  chnl=15
char id=86   x=337   y=66    width=41    height=56    xoffset=-4    yoffset=8     xadvance=31    page=0  chnl=15
char id=87   x=230   y=66    width=58    height=56    xoffset=-4    yoffset=8     xadvance=49    page=0  chnl=15
char id=88   x=420   y=64    width=39    height=56    xoffset=-4    yoffset=8     xadvance=29    page=0  chnl=15
char id=89   x=0     y=126   width=38    height=56    xoffset=-4    yoffset=8     xadvance=28    page=0  chnl=15
char id=90   x=345   y=123   width=32    height=56    xoffset=-4    yoffset=8     xadvance=24    page=0  chnl=15
char id=162  x=426   y=0     width=37    height=59    xoffset=-3    yoffset=9     xadvance=31    page=0  chnl=15
char id=163  x=39    y=67    width=38    height=58    xoffset=-3    yoffset=7     xadvance=32    page=0  chnl=15
char id=165  x=39    y=126   width=38    height=56    xoffset=-4    yoffset=8     xadvance=28    page=0  chnl=15
char id=176  x=46    y=183   width=28    height=27    xoffset=-4    yoffset=8     xadvance=21    page=0  chnl=15
char id=192  x=193   y=0     width=40    height=65    xoffset=-4    yoffset=-1    xadvance=30    page=0  chnl=15
char id=193  x=152   y=0     width=40    height=65    xoffset=-4    yoffset=-1    xadvance=30    page=0  chnl=15
char id=200  x=305   y=0     width=31    height=65    xoffset=-2    yoffset=-1    xadvance=25    page=0  chnl=15
char id=201  x=273   y=0     width=31    height=65    xoffset=-2    yoffset=-1    xadvance=25    page=0  chnl=15
char id=204  x=363   y=0     width=24    height=65    xoffset=-4    yoffset=-1    xadvance=17    page=0  chnl=15
char id=205  x=337   y=0     width=25    height=65    xoffset=-2    yoffset=-1    xadvance=17    page=0  chnl=15
char id=210  x=76    y=0     width=37    height=66    xoffset=-2    yoffset=-1    xadvance=33    page=0  chnl=15
char id=211  x=38    y=0     width=37    height=66    xoffset=-2    yoffset=-1    xadvance=33    page=0  chnl=15
char id=217  x=0     y=0     width=37    height=66    xoffset=-2    yoffset=-1    xadvance=33    page=0  chnl=15
char id=218  x=114   y=0     width=37    height=66    xoffset=-2    yoffset=-1    xadvance=33    page=0  chnl=15
kernings count=92
kerning first=200 second=84  amount=-1  
kerning first=193 second=193 amount=1   
kerning first=193 second=192 amount=1   
kerning first=193 second=90  amount=1   
kerning first=193 second=89  amount=-3  
kerning first=193 second=88  amount=1   
kerning first=193 second=87  amount=-1  
kerning first=193 second=86  amount=-1  
kerning first=193 second=84  amount=-3  
kerning first=193 second=74  amount=1   
kerning first=193 second=65  amount=1   
kerning first=192 second=193 amount=1   
kerning first=192 second=192 amount=1   
kerning first=192 second=90  amount=1   
kerning first=192 second=89  amount=-3  
kerning first=192 second=88  amount=1   
kerning first=192 second=87  amount=-1  
kerning first=192 second=86  amount=-1  
kerning first=192 second=84  amount=-3  
kerning first=192 second=74  amount=1   
kerning first=192 second=65  amount=1   
kerning first=201 second=84  amount=-1  
kerning first=90  second=193 amount=1   
kerning first=90  second=192 amount=1   
kerning first=90  second=65  amount=1   
kerning first=65  second=65  amount=1   
kerning first=65  second=74  amount=1   
kerning first=65  second=84  amount=-3  
kerning first=65  second=86  amount=-1  
kerning first=65  second=87  amount=-1  
kerning first=65  second=88  amount=1   
kerning first=65  second=89  amount=-3  
kerning first=65  second=90  amount=1   
kerning first=89  second=193 amount=-3  
kerning first=89  second=192 amount=-3  
kerning first=89  second=74  amount=-2  
kerning first=89  second=65  amount=-3  
kerning first=88  second=193 amount=1   
kerning first=88  second=192 amount=1   
kerning first=88  second=74  amount=1   
kerning first=88  second=65  amount=1   
kerning first=65  second=192 amount=1   
kerning first=87  second=89  amount=1   
kerning first=87  second=74  amount=-1  
kerning first=86  second=193 amount=-1  
kerning first=65  second=193 amount=1   
kerning first=69  second=84  amount=-1  
kerning first=86  second=192 amount=-1  
kerning first=86  second=89  amount=1   
kerning first=70  second=65  amount=-1  
kerning first=70  second=86  amount=1   
kerning first=70  second=87  amount=1   
kerning first=70  second=89  amount=1   
kerning first=86  second=74  amount=-1  
kerning first=86  second=65  amount=-1  
kerning first=84  second=193 amount=-2  
kerning first=84  second=192 amount=-2  
kerning first=70  second=192 amount=-1  
kerning first=84  second=89  amount=1   
kerning first=84  second=87  amount=1   
kerning first=84  second=86  amount=1   
kerning first=70  second=193 amount=-1  
kerning first=84  second=74  amount=-2  
kerning first=84  second=65  amount=-2  
kerning first=80  second=193 amount=-1  
kerning first=75  second=65  amount=1   
kerning first=75  second=67  amount=-1  
kerning first=75  second=74  amount=1   
kerning first=75  second=79  amount=-1  
kerning first=75  second=81  amount=-1  
kerning first=75  second=83  amount=-1  
kerning first=75  second=90  amount=1   
kerning first=80  second=192 amount=-1  
kerning first=80  second=74  amount=-2  
kerning first=80  second=65  amount=-1  
kerning first=76  second=211 amount=-1  
kerning first=76  second=193 amount=1   
kerning first=76  second=192 amount=1   
kerning first=76  second=90  amount=1   
kerning first=76  second=89  amount=-4  
kerning first=75  second=192 amount=1   
kerning first=76  second=88  amount=1   
kerning first=76  second=87  amount=-2  
kerning first=76  second=86  amount=-2  
kerning first=76  second=84  amount=-4  
kerning first=75  second=193 amount=1   
kerning first=75  second=211 amount=-1  
kerning first=76  second=81  amount=-1  
kerning first=76  second=79  amount=-1  
kerning first=76  second=65  amount=1   
kerning first=76  second=67  amount=-1  
kerning first=76  second=71  amount=-1  
