info face="Impact" size=-80 bold=0 italic=0 charset="" unicode=1 stretchH=100 smooth=1 aa=1 padding=1,1,1,1 spacing=1,1 outline=0
common lineHeight=98 base=81 scaleW=1024 scaleH=512 pages=1 packed=0 alphaChnl=0 redChnl=4 greenChnl=4 blueChnl=4
page id=0 file="Impact80@4x_0.png"
chars count=191
char id=32   x=1020  y=147   width=3     height=3     xoffset=-1    yoffset=-1    xadvance=14    page=0  chnl=15
char id=33   x=774   y=283   width=20    height=65    xoffset=1     yoffset=17    xadvance=22    page=0  chnl=15
char id=34   x=533   y=408   width=30    height=23    xoffset=-1    yoffset=17    xadvance=30    page=0  chnl=15
char id=35   x=171   y=359   width=52    height=58    xoffset=-1    yoffset=24    xadvance=50    page=0  chnl=15
char id=36   x=61    y=81    width=40    height=76    xoffset=1     yoffset=12    xadvance=44    page=0  chnl=15
char id=37   x=397   y=153   width=56    height=67    xoffset=-1    yoffset=16    xadvance=55    page=0  chnl=15
char id=38   x=282   y=359   width=49    height=56    xoffset=-1    yoffset=27    xadvance=46    page=0  chnl=15
char id=39   x=564   y=408   width=15    height=23    xoffset=-1    yoffset=17    xadvance=15    page=0  chnl=15
char id=40   x=706   y=283   width=23    height=65    xoffset=1     yoffset=17    xadvance=25    page=0  chnl=15
char id=41   x=682   y=283   width=23    height=65    xoffset=0     yoffset=17    xadvance=25    page=0  chnl=15
char id=42   x=580   y=406   width=24    height=22    xoffset=-1    yoffset=17    xadvance=22    page=0  chnl=15
char id=43   x=168   y=422   width=41    height=41    xoffset=1     yoffset=29    xadvance=43    page=0  chnl=15
char id=44   x=605   y=406   width=14    height=22    xoffset=-1    yoffset=68    xadvance=13    page=0  chnl=15
char id=45   x=713   y=405   width=25    height=14    xoffset=-1    yoffset=49    xadvance=24    page=0  chnl=15
char id=46   x=697   y=405   width=15    height=15    xoffset=-1    yoffset=67    xadvance=15    page=0  chnl=15
char id=47   x=194   y=225   width=33    height=67    xoffset=-1    yoffset=16    xadvance=32    page=0  chnl=15
char id=48   x=40    y=232   width=39    height=67    xoffset=1     yoffset=16    xadvance=43    page=0  chnl=15
char id=49   x=602   y=283   width=28    height=65    xoffset=-1    yoffset=17    xadvance=30    page=0  chnl=15
char id=50   x=461   y=218   width=38    height=66    xoffset=1     yoffset=16    xadvance=40    page=0  chnl=15
char id=51   x=120   y=226   width=38    height=67    xoffset=1     yoffset=16    xadvance=42    page=0  chnl=15
char id=52   x=0     y=300   width=41    height=65    xoffset=-1    yoffset=17    xadvance=40    page=0  chnl=15
char id=53   x=341   y=224   width=39    height=66    xoffset=1     yoffset=17    xadvance=43    page=0  chnl=15
char id=54   x=0     y=232   width=39    height=67    xoffset=1     yoffset=16    xadvance=43    page=0  chnl=15
char id=55   x=475   y=285   width=32    height=65    xoffset=-1    yoffset=17    xadvance=31    page=0  chnl=15
char id=56   x=959   y=148   width=39    height=67    xoffset=1     yoffset=16    xadvance=43    page=0  chnl=15
char id=57   x=80    y=228   width=39    height=67    xoffset=1     yoffset=16    xadvance=43    page=0  chnl=15
char id=58   x=1002  y=334   width=15    height=43    xoffset=1     yoffset=39    xadvance=16    page=0  chnl=15
char id=59   x=999   y=282   width=15    height=51    xoffset=1     yoffset=39    xadvance=16    page=0  chnl=15
char id=60   x=85    y=428   width=40    height=42    xoffset=1     yoffset=28    xadvance=43    page=0  chnl=15
char id=61   x=422   y=412   width=40    height=28    xoffset=1     yoffset=36    xadvance=43    page=0  chnl=15
char id=62   x=44    y=428   width=40    height=42    xoffset=1     yoffset=28    xadvance=43    page=0  chnl=15
char id=63   x=258   y=224   width=41    height=66    xoffset=-1    yoffset=16    xadvance=42    page=0  chnl=15
char id=64   x=497   y=79    width=63    height=69    xoffset=-1    yoffset=16    xadvance=62    page=0  chnl=15
char id=65   x=719   y=217   width=45    height=65    xoffset=-3    yoffset=17    xadvance=40    page=0  chnl=15
char id=66   x=166   y=293   width=40    height=65    xoffset=1     yoffset=17    xadvance=44    page=0  chnl=15
char id=67   x=918   y=148   width=40    height=67    xoffset=1     yoffset=16    xadvance=44    page=0  chnl=15
char id=68   x=125   y=294   width=40    height=65    xoffset=1     yoffset=17    xadvance=44    page=0  chnl=15
char id=69   x=508   y=285   width=31    height=65    xoffset=1     yoffset=17    xadvance=33    page=0  chnl=15
char id=70   x=540   y=283   width=31    height=65    xoffset=1     yoffset=17    xadvance=32    page=0  chnl=15
char id=71   x=877   y=149   width=40    height=67    xoffset=1     yoffset=16    xadvance=44    page=0  chnl=15
char id=72   x=84    y=296   width=40    height=65    xoffset=1     yoffset=17    xadvance=44    page=0  chnl=15
char id=73   x=795   y=283   width=19    height=65    xoffset=1     yoffset=17    xadvance=23    page=0  chnl=15
char id=74   x=657   y=283   width=24    height=65    xoffset=-1    yoffset=17    xadvance=26    page=0  chnl=15
char id=75   x=765   y=217   width=44    height=65    xoffset=1     yoffset=17    xadvance=43    page=0  chnl=15
char id=76   x=572   y=283   width=29    height=65    xoffset=1     yoffset=17    xadvance=30    page=0  chnl=15
char id=77   x=665   y=217   width=53    height=65    xoffset=1     yoffset=17    xadvance=57    page=0  chnl=15
char id=78   x=207   y=293   width=39    height=65    xoffset=1     yoffset=17    xadvance=43    page=0  chnl=15
char id=79   x=795   y=149   width=40    height=67    xoffset=1     yoffset=16    xadvance=44    page=0  chnl=15
char id=80   x=403   y=289   width=37    height=65    xoffset=1     yoffset=17    xadvance=40    page=0  chnl=15
char id=81   x=319   y=80    width=40    height=73    xoffset=1     yoffset=16    xadvance=44    page=0  chnl=15
char id=82   x=247   y=293   width=39    height=65    xoffset=1     yoffset=17    xadvance=43    page=0  chnl=15
char id=83   x=836   y=149   width=40    height=67    xoffset=0     yoffset=16    xadvance=41    page=0  chnl=15
char id=84   x=326   y=291   width=38    height=65    xoffset=-1    yoffset=17    xadvance=37    page=0  chnl=15
char id=85   x=300   y=224   width=40    height=66    xoffset=1     yoffset=17    xadvance=44    page=0  chnl=15
char id=86   x=898   y=217   width=43    height=65    xoffset=-1    yoffset=17    xadvance=42    page=0  chnl=15
char id=87   x=539   y=217   width=67    height=65    xoffset=-2    yoffset=17    xadvance=65    page=0  chnl=15
char id=88   x=854   y=217   width=43    height=65    xoffset=-3    yoffset=17    xadvance=38    page=0  chnl=15
char id=89   x=942   y=216   width=41    height=65    xoffset=-2    yoffset=17    xadvance=38    page=0  chnl=15
char id=90   x=441   y=288   width=33    height=65    xoffset=-1    yoffset=17    xadvance=32    page=0  chnl=15
char id=91   x=730   y=283   width=21    height=65    xoffset=1     yoffset=17    xadvance=23    page=0  chnl=15
char id=92   x=159   y=225   width=34    height=67    xoffset=-1    yoffset=16    xadvance=32    page=0  chnl=15
char id=93   x=752   y=283   width=21    height=65    xoffset=0     yoffset=17    xadvance=23    page=0  chnl=15
char id=94   x=381   y=414   width=40    height=34    xoffset=-1    yoffset=17    xadvance=39    page=0  chnl=15
char id=95   x=844   y=404   width=46    height=7     xoffset=-1    yoffset=85    xadvance=44    page=0  chnl=15
char id=96   x=790   y=404   width=23    height=14    xoffset=-1    yoffset=10    xadvance=27    page=0  chnl=15
char id=97   x=530   y=351   width=37    height=56    xoffset=1     yoffset=27    xadvance=40    page=0  chnl=15
char id=98   x=381   y=222   width=39    height=66    xoffset=1     yoffset=17    xadvance=42    page=0  chnl=15
char id=99   x=568   y=349   width=37    height=56    xoffset=1     yoffset=27    xadvance=40    page=0  chnl=15
char id=100  x=421   y=221   width=39    height=66    xoffset=1     yoffset=17    xadvance=42    page=0  chnl=15
char id=101  x=413   y=355   width=38    height=56    xoffset=1     yoffset=27    xadvance=41    page=0  chnl=15
char id=102  x=631   y=283   width=25    height=65    xoffset=-1    yoffset=17    xadvance=23    page=0  chnl=15
char id=103  x=855   y=283   width=38    height=63    xoffset=1     yoffset=27    xadvance=41    page=0  chnl=15
char id=104  x=984   y=216   width=39    height=65    xoffset=1     yoffset=17    xadvance=42    page=0  chnl=15
char id=105  x=835   y=283   width=19    height=65    xoffset=1     yoffset=17    xadvance=22    page=0  chnl=15
char id=106  x=400   y=79    width=21    height=72    xoffset=-1    yoffset=17    xadvance=22    page=0  chnl=15
char id=107  x=287   y=291   width=38    height=65    xoffset=1     yoffset=17    xadvance=38    page=0  chnl=15
char id=108  x=815   y=283   width=19    height=65    xoffset=1     yoffset=17    xadvance=22    page=0  chnl=15
char id=109  x=606   y=349   width=59    height=55    xoffset=1     yoffset=27    xadvance=62    page=0  chnl=15
char id=110  x=706   y=349   width=39    height=55    xoffset=1     yoffset=27    xadvance=42    page=0  chnl=15
char id=111  x=374   y=357   width=38    height=56    xoffset=1     yoffset=27    xadvance=41    page=0  chnl=15
char id=112  x=959   y=282   width=39    height=62    xoffset=1     yoffset=27    xadvance=42    page=0  chnl=15
char id=113  x=0     y=366   width=38    height=62    xoffset=1     yoffset=27    xadvance=41    page=0  chnl=15
char id=114  x=746   y=349   width=28    height=55    xoffset=1     yoffset=27    xadvance=29    page=0  chnl=15
char id=115  x=452   y=354   width=38    height=56    xoffset=0     yoffset=27    xadvance=38    page=0  chnl=15
char id=116  x=143   y=360   width=27    height=61    xoffset=-1    yoffset=21    xadvance=24    page=0  chnl=15
char id=117  x=666   y=349   width=39    height=55    xoffset=1     yoffset=28    xadvance=42    page=0  chnl=15
char id=118  x=871   y=347   width=37    height=54    xoffset=-1    yoffset=28    xadvance=34    page=0  chnl=15
char id=119  x=775   y=349   width=57    height=54    xoffset=-2    yoffset=28    xadvance=54    page=0  chnl=15
char id=120  x=833   y=349   width=37    height=54    xoffset=-2    yoffset=28    xadvance=35    page=0  chnl=15
char id=121  x=104   y=362   width=38    height=61    xoffset=-1    yoffset=28    xadvance=36    page=0  chnl=15
char id=122  x=909   y=346   width=30    height=54    xoffset=-1    yoffset=28    xadvance=28    page=0  chnl=15
char id=123  x=0     y=84    width=30    height=77    xoffset=-1    yoffset=17    xadvance=30    page=0  chnl=15
char id=124  x=1009  y=0     width=11    height=75    xoffset=5     yoffset=17    xadvance=22    page=0  chnl=15
char id=125  x=978   y=0     width=30    height=77    xoffset=0     yoffset=17    xadvance=30    page=0  chnl=15
char id=126  x=620   y=405   width=39    height=20    xoffset=1     yoffset=39    xadvance=42    page=0  chnl=15
char id=160  x=61    y=158   width=3     height=3     xoffset=-1    yoffset=-1    xadvance=14    page=0  chnl=15
char id=161  x=999   y=147   width=20    height=66    xoffset=1     yoffset=24    xadvance=22    page=0  chnl=15
char id=162  x=422   y=79    width=38    height=70    xoffset=1     yoffset=17    xadvance=41    page=0  chnl=15
char id=163  x=668   y=149   width=42    height=67    xoffset=1     yoffset=16    xadvance=43    page=0  chnl=15
char id=164  x=0     y=429   width=43    height=44    xoffset=0     yoffset=34    xadvance=44    page=0  chnl=15
char id=165  x=42    y=300   width=41    height=65    xoffset=-2    yoffset=17    xadvance=38    page=0  chnl=15
char id=166  x=182   y=80    width=11    height=75    xoffset=5     yoffset=17    xadvance=22    page=0  chnl=15
char id=167  x=102   y=80    width=40    height=75    xoffset=-1    yoffset=16    xadvance=39    page=0  chnl=15
char id=168  x=814   y=404   width=29    height=13    xoffset=-1    yoffset=11    xadvance=27    page=0  chnl=15
char id=169  x=39    y=366   width=64    height=61    xoffset=-1    yoffset=21    xadvance=63    page=0  chnl=15
char id=170  x=326   y=416   width=27    height=35    xoffset=-1    yoffset=16    xadvance=26    page=0  chnl=15
char id=171  x=971   y=345   width=30    height=47    xoffset=-1    yoffset=31    xadvance=30    page=0  chnl=15
char id=172  x=463   y=411   width=40    height=28    xoffset=1     yoffset=36    xadvance=43    page=0  chnl=15
char id=173  x=739   y=405   width=25    height=14    xoffset=-1    yoffset=49    xadvance=24    page=0  chnl=15
char id=174  x=894   y=283   width=64    height=62    xoffset=-1    yoffset=20    xadvance=63    page=0  chnl=15
char id=175  x=891   y=402   width=46    height=7     xoffset=-1    yoffset=10    xadvance=44    page=0  chnl=15
char id=176  x=504   y=408   width=28    height=28    xoffset=-1    yoffset=16    xadvance=28    page=0  chnl=15
char id=177  x=332   y=357   width=41    height=56    xoffset=1     yoffset=21    xadvance=43    page=0  chnl=15
char id=178  x=251   y=416   width=26    height=38    xoffset=-1    yoffset=16    xadvance=25    page=0  chnl=15
char id=179  x=278   y=416   width=26    height=38    xoffset=-1    yoffset=16    xadvance=26    page=0  chnl=15
char id=180  x=765   y=405   width=24    height=14    xoffset=4     yoffset=10    xadvance=27    page=0  chnl=15
char id=181  x=461   y=79    width=35    height=70    xoffset=1     yoffset=28    xadvance=38    page=0  chnl=15
char id=182  x=194   y=80    width=47    height=74    xoffset=-1    yoffset=17    xadvance=46    page=0  chnl=15
char id=183  x=681   y=405   width=15    height=15    xoffset=6     yoffset=46    xadvance=27    page=0  chnl=15
char id=184  x=660   y=405   width=20    height=20    xoffset=2     yoffset=79    xadvance=27    page=0  chnl=15
char id=185  x=305   y=416   width=20    height=38    xoffset=-1    yoffset=16    xadvance=20    page=0  chnl=15
char id=186  x=354   y=414   width=26    height=35    xoffset=-1    yoffset=16    xadvance=26    page=0  chnl=15
char id=187  x=940   y=346   width=30    height=47    xoffset=0     yoffset=31    xadvance=30    page=0  chnl=15
char id=188  x=564   y=149   width=51    height=67    xoffset=-1    yoffset=16    xadvance=50    page=0  chnl=15
char id=189  x=510   y=149   width=53    height=67    xoffset=-1    yoffset=16    xadvance=52    page=0  chnl=15
char id=190  x=454   y=150   width=55    height=67    xoffset=0     yoffset=16    xadvance=55    page=0  chnl=15
char id=191  x=711   y=149   width=41    height=67    xoffset=-1    yoffset=24    xadvance=42    page=0  chnl=15
char id=192  x=466   y=0     width=45    height=78    xoffset=-3    yoffset=4     xadvance=40    page=0  chnl=15
char id=193  x=512   y=0     width=45    height=78    xoffset=-3    yoffset=4     xadvance=40    page=0  chnl=15
char id=194  x=374   y=0     width=45    height=78    xoffset=-3    yoffset=4     xadvance=40    page=0  chnl=15
char id=195  x=420   y=0     width=45    height=78    xoffset=-3    yoffset=4     xadvance=40    page=0  chnl=15
char id=196  x=900   y=0     width=45    height=77    xoffset=-3    yoffset=5     xadvance=40    page=0  chnl=15
char id=197  x=0     y=0     width=45    height=83    xoffset=-3    yoffset=-1    xadvance=40    page=0  chnl=15
char id=198  x=607   y=217   width=57    height=65    xoffset=-1    yoffset=17    xadvance=57    page=0  chnl=15
char id=199  x=46    y=0     width=40    height=80    xoffset=1     yoffset=16    xadvance=44    page=0  chnl=15
char id=200  x=755   y=0     width=31    height=78    xoffset=1     yoffset=4     xadvance=33    page=0  chnl=15
char id=201  x=787   y=0     width=31    height=78    xoffset=1     yoffset=4     xadvance=33    page=0  chnl=15
char id=202  x=722   y=0     width=32    height=78    xoffset=1     yoffset=4     xadvance=33    page=0  chnl=15
char id=203  x=946   y=0     width=31    height=77    xoffset=1     yoffset=5     xadvance=33    page=0  chnl=15
char id=204  x=876   y=0     width=23    height=78    xoffset=-3    yoffset=4     xadvance=23    page=0  chnl=15
char id=205  x=851   y=0     width=24    height=78    xoffset=1     yoffset=4     xadvance=23    page=0  chnl=15
char id=206  x=819   y=0     width=31    height=78    xoffset=-4    yoffset=4     xadvance=23    page=0  chnl=15
char id=207  x=31    y=84    width=29    height=77    xoffset=-3    yoffset=5     xadvance=23    page=0  chnl=15
char id=208  x=810   y=217   width=43    height=65    xoffset=-1    yoffset=17    xadvance=45    page=0  chnl=15
char id=209  x=682   y=0     width=39    height=78    xoffset=1     yoffset=4     xadvance=43    page=0  chnl=15
char id=210  x=87    y=0     width=40    height=79    xoffset=1     yoffset=4     xadvance=44    page=0  chnl=15
char id=211  x=333   y=0     width=40    height=79    xoffset=1     yoffset=4     xadvance=44    page=0  chnl=15
char id=212  x=169   y=0     width=40    height=79    xoffset=1     yoffset=4     xadvance=44    page=0  chnl=15
char id=213  x=210   y=0     width=40    height=79    xoffset=1     yoffset=4     xadvance=44    page=0  chnl=15
char id=214  x=641   y=0     width=40    height=78    xoffset=1     yoffset=5     xadvance=44    page=0  chnl=15
char id=215  x=126   y=424   width=41    height=41    xoffset=1     yoffset=28    xadvance=43    page=0  chnl=15
char id=216  x=616   y=149   width=51    height=67    xoffset=-4    yoffset=16    xadvance=44    page=0  chnl=15
char id=217  x=251   y=0     width=40    height=79    xoffset=1     yoffset=4     xadvance=44    page=0  chnl=15
char id=218  x=292   y=0     width=40    height=79    xoffset=1     yoffset=4     xadvance=44    page=0  chnl=15
char id=219  x=128   y=0     width=40    height=79    xoffset=1     yoffset=4     xadvance=44    page=0  chnl=15
char id=220  x=600   y=0     width=40    height=78    xoffset=1     yoffset=5     xadvance=44    page=0  chnl=15
char id=221  x=558   y=0     width=41    height=78    xoffset=-2    yoffset=4     xadvance=38    page=0  chnl=15
char id=222  x=365   y=291   width=37    height=65    xoffset=1     yoffset=17    xadvance=40    page=0  chnl=15
char id=223  x=753   y=149   width=41    height=67    xoffset=1     yoffset=15    xadvance=44    page=0  chnl=15
char id=224  x=954   y=78    width=37    height=69    xoffset=1     yoffset=14    xadvance=40    page=0  chnl=15
char id=225  x=0     y=162   width=37    height=69    xoffset=1     yoffset=14    xadvance=40    page=0  chnl=15
char id=226  x=114   y=156   width=37    height=69    xoffset=1     yoffset=14    xadvance=40    page=0  chnl=15
char id=227  x=38    y=162   width=37    height=69    xoffset=1     yoffset=14    xadvance=40    page=0  chnl=15
char id=228  x=310   y=155   width=37    height=68    xoffset=1     yoffset=15    xadvance=40    page=0  chnl=15
char id=229  x=281   y=80    width=37    height=74    xoffset=1     yoffset=9     xadvance=40    page=0  chnl=15
char id=230  x=224   y=359   width=57    height=56    xoffset=1     yoffset=27    xadvance=60    page=0  chnl=15
char id=231  x=76    y=158   width=37    height=69    xoffset=1     yoffset=27    xadvance=40    page=0  chnl=15
char id=232  x=720   y=79    width=38    height=69    xoffset=1     yoffset=14    xadvance=41    page=0  chnl=15
char id=233  x=759   y=79    width=38    height=69    xoffset=1     yoffset=14    xadvance=41    page=0  chnl=15
char id=234  x=681   y=79    width=38    height=69    xoffset=1     yoffset=14    xadvance=41    page=0  chnl=15
char id=235  x=232   y=155   width=38    height=68    xoffset=1     yoffset=15    xadvance=41    page=0  chnl=15
char id=236  x=373   y=153   width=23    height=68    xoffset=-3    yoffset=14    xadvance=22    page=0  chnl=15
char id=237  x=348   y=154   width=24    height=68    xoffset=1     yoffset=14    xadvance=22    page=0  chnl=15
char id=238  x=992   y=78    width=31    height=68    xoffset=-4    yoffset=14    xadvance=22    page=0  chnl=15
char id=239  x=228   y=225   width=29    height=67    xoffset=-3    yoffset=15    xadvance=22    page=0  chnl=15
char id=240  x=500   y=218   width=38    height=66    xoffset=1     yoffset=17    xadvance=41    page=0  chnl=15
char id=241  x=152   y=156   width=39    height=68    xoffset=1     yoffset=14    xadvance=42    page=0  chnl=15
char id=242  x=798   y=79    width=38    height=69    xoffset=1     yoffset=14    xadvance=41    page=0  chnl=15
char id=243  x=837   y=79    width=38    height=69    xoffset=1     yoffset=14    xadvance=41    page=0  chnl=15
char id=244  x=915   y=78    width=38    height=69    xoffset=1     yoffset=14    xadvance=41    page=0  chnl=15
char id=245  x=876   y=79    width=38    height=69    xoffset=1     yoffset=14    xadvance=41    page=0  chnl=15
char id=246  x=271   y=155   width=38    height=68    xoffset=1     yoffset=15    xadvance=41    page=0  chnl=15
char id=247  x=210   y=418   width=40    height=39    xoffset=1     yoffset=30    xadvance=43    page=0  chnl=15
char id=248  x=491   y=351   width=38    height=56    xoffset=1     yoffset=27    xadvance=41    page=0  chnl=15
char id=249  x=561   y=79    width=39    height=69    xoffset=1     yoffset=14    xadvance=42    page=0  chnl=15
char id=250  x=601   y=79    width=39    height=69    xoffset=1     yoffset=14    xadvance=42    page=0  chnl=15
char id=251  x=641   y=79    width=39    height=69    xoffset=1     yoffset=14    xadvance=42    page=0  chnl=15
char id=252  x=192   y=156   width=39    height=68    xoffset=1     yoffset=15    xadvance=42    page=0  chnl=15
char id=253  x=143   y=80    width=38    height=75    xoffset=-1    yoffset=14    xadvance=36    page=0  chnl=15
char id=254  x=360   y=80    width=39    height=72    xoffset=1     yoffset=17    xadvance=42    page=0  chnl=15
char id=255  x=242   y=80    width=38    height=74    xoffset=-1    yoffset=15    xadvance=36    page=0  chnl=15
kernings count=416
kerning first=40  second=65  amount=2   
kerning first=40  second=196 amount=2   
kerning first=40  second=197 amount=2   
kerning first=40  second=198 amount=2   
kerning first=40  second=192 amount=2   
kerning first=40  second=195 amount=2   
kerning first=40  second=194 amount=2   
kerning first=40  second=193 amount=2   
kerning first=50  second=52  amount=-2  
kerning first=51  second=55  amount=-1  
kerning first=52  second=49  amount=-2  
kerning first=52  second=55  amount=-1  
kerning first=53  second=49  amount=-2  
kerning first=53  second=50  amount=-2  
kerning first=53  second=55  amount=-2  
kerning first=54  second=50  amount=-1  
kerning first=54  second=55  amount=-1  
kerning first=55  second=49  amount=2   
kerning first=55  second=51  amount=1   
kerning first=55  second=52  amount=-2  
kerning first=55  second=55  amount=1   
kerning first=65  second=41  amount=2   
kerning first=65  second=44  amount=2   
kerning first=65  second=46  amount=2   
kerning first=65  second=47  amount=2   
kerning first=65  second=65  amount=2   
kerning first=65  second=74  amount=2   
kerning first=65  second=84  amount=-4  
kerning first=65  second=86  amount=-2  
kerning first=65  second=87  amount=-1  
kerning first=65  second=88  amount=2   
kerning first=65  second=89  amount=-5  
kerning first=65  second=90  amount=2   
kerning first=65  second=93  amount=2   
kerning first=65  second=120 amount=2   
kerning first=65  second=122 amount=2   
kerning first=65  second=125 amount=2   
kerning first=65  second=196 amount=2   
kerning first=65  second=197 amount=2   
kerning first=65  second=198 amount=2   
kerning first=200 second=84  amount=-1  
kerning first=65  second=192 amount=2   
kerning first=65  second=195 amount=2   
kerning first=203 second=84  amount=-1  
kerning first=65  second=194 amount=2   
kerning first=65  second=193 amount=2   
kerning first=69  second=84  amount=-1  
kerning first=70  second=44  amount=-4  
kerning first=70  second=46  amount=-4  
kerning first=70  second=65  amount=-2  
kerning first=70  second=86  amount=2   
kerning first=70  second=87  amount=2   
kerning first=70  second=89  amount=2   
kerning first=70  second=196 amount=-2  
kerning first=70  second=197 amount=-2  
kerning first=70  second=198 amount=-2  
kerning first=193 second=193 amount=2   
kerning first=70  second=192 amount=-2  
kerning first=70  second=195 amount=-2  
kerning first=193 second=194 amount=2   
kerning first=70  second=194 amount=-2  
kerning first=70  second=193 amount=-2  
kerning first=75  second=41  amount=1   
kerning first=75  second=44  amount=2   
kerning first=75  second=46  amount=2   
kerning first=75  second=65  amount=2   
kerning first=75  second=67  amount=-1  
kerning first=75  second=74  amount=1   
kerning first=75  second=79  amount=-1  
kerning first=75  second=81  amount=-1  
kerning first=75  second=83  amount=-1  
kerning first=75  second=90  amount=1   
kerning first=75  second=93  amount=1   
kerning first=75  second=125 amount=1   
kerning first=75  second=196 amount=2   
kerning first=75  second=197 amount=2   
kerning first=75  second=199 amount=-1  
kerning first=75  second=214 amount=-1  
kerning first=75  second=198 amount=2   
kerning first=193 second=195 amount=2   
kerning first=75  second=192 amount=2   
kerning first=75  second=195 amount=2   
kerning first=75  second=213 amount=-1  
kerning first=193 second=192 amount=2   
kerning first=75  second=194 amount=2   
kerning first=75  second=193 amount=2   
kerning first=75  second=211 amount=-1  
kerning first=76  second=44  amount=2   
kerning first=76  second=46  amount=2   
kerning first=76  second=65  amount=2   
kerning first=76  second=67  amount=-1  
kerning first=76  second=71  amount=-1  
kerning first=76  second=79  amount=-1  
kerning first=76  second=81  amount=-1  
kerning first=76  second=83  amount=-1  
kerning first=76  second=84  amount=-6  
kerning first=76  second=86  amount=-3  
kerning first=76  second=87  amount=-3  
kerning first=76  second=88  amount=1   
kerning first=76  second=89  amount=-5  
kerning first=76  second=90  amount=1   
kerning first=76  second=121 amount=-2  
kerning first=76  second=196 amount=2   
kerning first=76  second=197 amount=2   
kerning first=76  second=199 amount=-1  
kerning first=76  second=214 amount=-1  
kerning first=76  second=198 amount=2   
kerning first=193 second=198 amount=2   
kerning first=76  second=192 amount=2   
kerning first=76  second=195 amount=2   
kerning first=76  second=213 amount=-1  
kerning first=193 second=197 amount=2   
kerning first=193 second=196 amount=2   
kerning first=76  second=194 amount=2   
kerning first=76  second=193 amount=2   
kerning first=76  second=211 amount=-1  
kerning first=80  second=44  amount=-10 
kerning first=80  second=46  amount=-10 
kerning first=80  second=47  amount=-6  
kerning first=80  second=65  amount=-2  
kerning first=80  second=74  amount=-3  
kerning first=80  second=196 amount=-2  
kerning first=80  second=197 amount=-2  
kerning first=80  second=198 amount=-2  
kerning first=193 second=125 amount=2   
kerning first=80  second=192 amount=-2  
kerning first=80  second=195 amount=-2  
kerning first=80  second=194 amount=-2  
kerning first=80  second=193 amount=-2  
kerning first=84  second=44  amount=-7  
kerning first=84  second=45  amount=-5  
kerning first=84  second=46  amount=-7  
kerning first=84  second=47  amount=-6  
kerning first=84  second=65  amount=-3  
kerning first=84  second=74  amount=-4  
kerning first=84  second=86  amount=2   
kerning first=84  second=87  amount=2   
kerning first=84  second=89  amount=2   
kerning first=84  second=90  amount=-1  
kerning first=84  second=97  amount=-3  
kerning first=84  second=99  amount=-3  
kerning first=84  second=101 amount=-3  
kerning first=84  second=118 amount=2   
kerning first=84  second=119 amount=2   
kerning first=84  second=121 amount=2   
kerning first=84  second=196 amount=-3  
kerning first=84  second=197 amount=-3  
kerning first=84  second=231 amount=-3  
kerning first=84  second=198 amount=-3  
kerning first=84  second=230 amount=-3  
kerning first=193 second=122 amount=2   
kerning first=84  second=192 amount=-3  
kerning first=84  second=195 amount=-3  
kerning first=193 second=120 amount=2   
kerning first=84  second=194 amount=-3  
kerning first=84  second=193 amount=-3  
kerning first=86  second=44  amount=-3  
kerning first=86  second=46  amount=-3  
kerning first=86  second=47  amount=-3  
kerning first=86  second=65  amount=-1  
kerning first=86  second=74  amount=-2  
kerning first=86  second=89  amount=2   
kerning first=86  second=121 amount=2   
kerning first=86  second=196 amount=-1  
kerning first=86  second=197 amount=-1  
kerning first=86  second=198 amount=-1  
kerning first=193 second=93  amount=2   
kerning first=86  second=192 amount=-1  
kerning first=86  second=195 amount=-1  
kerning first=193 second=90  amount=2   
kerning first=86  second=194 amount=-1  
kerning first=86  second=193 amount=-1  
kerning first=87  second=44  amount=-3  
kerning first=87  second=46  amount=-3  
kerning first=87  second=47  amount=-3  
kerning first=87  second=65  amount=-1  
kerning first=87  second=74  amount=-2  
kerning first=87  second=89  amount=1   
kerning first=87  second=121 amount=1   
kerning first=87  second=196 amount=-1  
kerning first=87  second=197 amount=-1  
kerning first=87  second=198 amount=-1  
kerning first=193 second=89  amount=-5  
kerning first=87  second=192 amount=-1  
kerning first=87  second=195 amount=-1  
kerning first=193 second=88  amount=2   
kerning first=87  second=194 amount=-1  
kerning first=87  second=193 amount=-1  
kerning first=88  second=44  amount=3   
kerning first=88  second=46  amount=3   
kerning first=88  second=65  amount=2   
kerning first=88  second=74  amount=2   
kerning first=88  second=196 amount=2   
kerning first=88  second=197 amount=2   
kerning first=88  second=198 amount=2   
kerning first=193 second=87  amount=-1  
kerning first=88  second=192 amount=2   
kerning first=88  second=195 amount=2   
kerning first=88  second=194 amount=2   
kerning first=88  second=193 amount=2   
kerning first=89  second=44  amount=-7  
kerning first=89  second=46  amount=-7  
kerning first=89  second=47  amount=-7  
kerning first=89  second=65  amount=-4  
kerning first=89  second=74  amount=-4  
kerning first=89  second=97  amount=-4  
kerning first=89  second=99  amount=-4  
kerning first=89  second=100 amount=-2  
kerning first=89  second=101 amount=-4  
kerning first=89  second=103 amount=-3  
kerning first=89  second=111 amount=-4  
kerning first=89  second=113 amount=-2  
kerning first=89  second=115 amount=-3  
kerning first=89  second=196 amount=-4  
kerning first=89  second=197 amount=-4  
kerning first=89  second=231 amount=-4  
kerning first=89  second=198 amount=-4  
kerning first=89  second=230 amount=-4  
kerning first=193 second=86  amount=-2  
kerning first=89  second=192 amount=-4  
kerning first=89  second=195 amount=-4  
kerning first=193 second=84  amount=-4  
kerning first=89  second=194 amount=-4  
kerning first=89  second=193 amount=-4  
kerning first=90  second=44  amount=2   
kerning first=90  second=46  amount=2   
kerning first=90  second=65  amount=2   
kerning first=90  second=121 amount=2   
kerning first=90  second=196 amount=2   
kerning first=90  second=197 amount=2   
kerning first=90  second=198 amount=2   
kerning first=193 second=74  amount=2   
kerning first=90  second=192 amount=2   
kerning first=90  second=195 amount=2   
kerning first=90  second=194 amount=2   
kerning first=90  second=193 amount=2   
kerning first=91  second=65  amount=2   
kerning first=91  second=196 amount=2   
kerning first=91  second=197 amount=2   
kerning first=91  second=198 amount=2   
kerning first=91  second=192 amount=2   
kerning first=91  second=195 amount=2   
kerning first=91  second=194 amount=2   
kerning first=91  second=193 amount=2   
kerning first=102 second=118 amount=2   
kerning first=102 second=119 amount=2   
kerning first=102 second=121 amount=2   
kerning first=114 second=44  amount=-6  
kerning first=114 second=46  amount=-6  
kerning first=114 second=102 amount=1   
kerning first=114 second=116 amount=1   
kerning first=114 second=118 amount=1   
kerning first=114 second=119 amount=1   
kerning first=114 second=121 amount=1   
kerning first=193 second=65  amount=2   
kerning first=193 second=47  amount=2   
kerning first=193 second=46  amount=2   
kerning first=116 second=44  amount=2   
kerning first=116 second=46  amount=2   
kerning first=116 second=118 amount=1   
kerning first=116 second=121 amount=2   
kerning first=116 second=122 amount=2   
kerning first=193 second=44  amount=2   
kerning first=118 second=44  amount=-1  
kerning first=118 second=46  amount=-1  
kerning first=118 second=102 amount=2   
kerning first=118 second=116 amount=2   
kerning first=118 second=121 amount=2   
kerning first=118 second=122 amount=1   
kerning first=193 second=41  amount=2   
kerning first=202 second=84  amount=-1  
kerning first=194 second=193 amount=2   
kerning first=119 second=102 amount=2   
kerning first=119 second=121 amount=2   
kerning first=119 second=122 amount=1   
kerning first=194 second=194 amount=2   
kerning first=194 second=195 amount=2   
kerning first=120 second=44  amount=2   
kerning first=120 second=46  amount=2   
kerning first=120 second=121 amount=1   
kerning first=194 second=192 amount=2   
kerning first=121 second=44  amount=-1  
kerning first=121 second=46  amount=-1  
kerning first=121 second=102 amount=2   
kerning first=121 second=116 amount=2   
kerning first=121 second=118 amount=2   
kerning first=121 second=120 amount=2   
kerning first=194 second=198 amount=2   
kerning first=194 second=197 amount=2   
kerning first=194 second=196 amount=2   
kerning first=194 second=125 amount=2   
kerning first=122 second=44  amount=2   
kerning first=122 second=46  amount=2   
kerning first=122 second=102 amount=1   
kerning first=122 second=116 amount=1   
kerning first=122 second=118 amount=2   
kerning first=122 second=119 amount=2   
kerning first=122 second=121 amount=2   
kerning first=122 second=122 amount=1   
kerning first=194 second=122 amount=2   
kerning first=194 second=120 amount=2   
kerning first=194 second=93  amount=2   
kerning first=123 second=65  amount=2   
kerning first=123 second=196 amount=2   
kerning first=123 second=197 amount=2   
kerning first=123 second=198 amount=2   
kerning first=123 second=192 amount=2   
kerning first=123 second=195 amount=2   
kerning first=123 second=194 amount=2   
kerning first=123 second=193 amount=2   
kerning first=196 second=41  amount=2   
kerning first=196 second=44  amount=2   
kerning first=196 second=46  amount=2   
kerning first=196 second=47  amount=2   
kerning first=196 second=65  amount=2   
kerning first=196 second=74  amount=2   
kerning first=196 second=84  amount=-4  
kerning first=196 second=86  amount=-2  
kerning first=196 second=87  amount=-1  
kerning first=196 second=88  amount=2   
kerning first=196 second=89  amount=-5  
kerning first=196 second=90  amount=2   
kerning first=196 second=93  amount=2   
kerning first=196 second=120 amount=2   
kerning first=196 second=122 amount=2   
kerning first=196 second=125 amount=2   
kerning first=196 second=196 amount=2   
kerning first=196 second=197 amount=2   
kerning first=196 second=198 amount=2   
kerning first=194 second=90  amount=2   
kerning first=196 second=192 amount=2   
kerning first=196 second=195 amount=2   
kerning first=194 second=89  amount=-5  
kerning first=196 second=194 amount=2   
kerning first=196 second=193 amount=2   
kerning first=197 second=41  amount=2   
kerning first=197 second=44  amount=2   
kerning first=197 second=46  amount=2   
kerning first=197 second=47  amount=2   
kerning first=197 second=65  amount=2   
kerning first=197 second=74  amount=2   
kerning first=197 second=84  amount=-4  
kerning first=197 second=86  amount=-2  
kerning first=197 second=87  amount=-1  
kerning first=197 second=88  amount=2   
kerning first=197 second=89  amount=-5  
kerning first=197 second=90  amount=2   
kerning first=197 second=93  amount=2   
kerning first=197 second=120 amount=2   
kerning first=197 second=122 amount=2   
kerning first=197 second=125 amount=2   
kerning first=197 second=196 amount=2   
kerning first=197 second=197 amount=2   
kerning first=197 second=198 amount=2   
kerning first=194 second=88  amount=2   
kerning first=197 second=192 amount=2   
kerning first=197 second=195 amount=2   
kerning first=194 second=87  amount=-1  
kerning first=197 second=194 amount=2   
kerning first=197 second=193 amount=2   
kerning first=201 second=84  amount=-1  
kerning first=198 second=84  amount=-1  
kerning first=192 second=41  amount=2   
kerning first=192 second=44  amount=2   
kerning first=192 second=46  amount=2   
kerning first=192 second=47  amount=2   
kerning first=192 second=65  amount=2   
kerning first=192 second=74  amount=2   
kerning first=192 second=84  amount=-4  
kerning first=192 second=86  amount=-2  
kerning first=192 second=87  amount=-1  
kerning first=192 second=88  amount=2   
kerning first=192 second=89  amount=-5  
kerning first=192 second=90  amount=2   
kerning first=192 second=93  amount=2   
kerning first=192 second=120 amount=2   
kerning first=192 second=122 amount=2   
kerning first=192 second=125 amount=2   
kerning first=192 second=196 amount=2   
kerning first=192 second=197 amount=2   
kerning first=192 second=198 amount=2   
kerning first=194 second=86  amount=-2  
kerning first=192 second=192 amount=2   
kerning first=192 second=195 amount=2   
kerning first=194 second=84  amount=-4  
kerning first=192 second=194 amount=2   
kerning first=192 second=193 amount=2   
kerning first=195 second=41  amount=2   
kerning first=195 second=44  amount=2   
kerning first=195 second=46  amount=2   
kerning first=195 second=47  amount=2   
kerning first=195 second=65  amount=2   
kerning first=195 second=74  amount=2   
kerning first=195 second=84  amount=-4  
kerning first=195 second=86  amount=-2  
kerning first=195 second=87  amount=-1  
kerning first=195 second=88  amount=2   
kerning first=195 second=89  amount=-5  
kerning first=195 second=90  amount=2   
kerning first=195 second=93  amount=2   
kerning first=195 second=120 amount=2   
kerning first=195 second=122 amount=2   
kerning first=195 second=125 amount=2   
kerning first=195 second=196 amount=2   
kerning first=195 second=197 amount=2   
kerning first=195 second=198 amount=2   
kerning first=194 second=74  amount=2   
kerning first=195 second=192 amount=2   
kerning first=195 second=195 amount=2   
kerning first=194 second=65  amount=2   
kerning first=195 second=194 amount=2   
kerning first=195 second=193 amount=2   
kerning first=194 second=47  amount=2   
kerning first=194 second=46  amount=2   
kerning first=194 second=44  amount=2   
kerning first=194 second=41  amount=2   
